SRC,DEST,TIME,FLIGHT-NO
DELHI,MUMBAI,DAY,EX-101
DELHI,MUMBAI,NIGHT,EX-102
MUMBAI,DELHI,DAY,EX-201
MUMBAI,DELHI,NIGHT,EX-202
DELHI,BENGALURU,DAY,EX-301
DELHI,BENGALURU,NIGHT,EX-302
BENGALURU,DELHI,DAY,EX-401
BENGALURU,DELHI,NIGHT,EX-402
MUMBAI,BENGALURU,DAY,EX-501
MUMBAI,BENGALURU,NIGHT,EX-502
BENGALURU,MUMBAI,DAY,EX-601
BENGALURU,MUMBAI,NIGHT,EX-602